Plotting TTD model outputs
…
2.2 TTD species mean

## Create a summary table with mean, sd, se, and number of counts
summary_ttd <- ttd %>% 
  group_by(species) %>% 
  summarise(mean_ttd = mean(ttd, na.rm = TRUE), 
            sd_ttd = sd(ttd),
            n_detect = length(ttd), 
            se_ttd = sd(ttd,na.rm = TRUE)/sqrt(length(ttd))) %>%
  arrange(mean_ttd)

summary_ttd

## # A tibble: 68 x 5
##    species                        mean_ttd sd_ttd n_detect se_ttd
##    <chr>                             <dbl>  <dbl>    <int>  <dbl>
##  1 Pale-winged Starling               80.2   102.       20   22.9
##  2 Karoo Chat                        120.    154.      138   13.1
##  3 Grey-backed Sparrowlark           126.    154.       32   27.2
##  4 Rock Kestrel                      134.    209.       20   46.8
##  5 Greater Striped-Swallow           142.    166.       20   37.1
##  6 White-necked Raven                144.    138.       44   20.8
##  7 Karoo Korhaan                     146.    166.       63   21.0
##  8 Southern Pale Chanting Goshawk    148.    174.       37   28.6
##  9 Yellow Canary                     152.    154.       40   24.3
## 10 Lark-like Bunting                 154.    172.      100   17.2
## # ... with 58 more rows
…
4 Create MCMC plotting data frame

plot_data <- ttd_modfit$summary$all.chains %>% 
  as_tibble() %>% 
  clean_names() %>% 
  mutate(param = row.names(ttd_modfit$summary$all.chains)) %>% 
  select(param, mean, x95_percent_ci_low, x95_percent_ci_upp) %>% 
  rename(lower = x95_percent_ci_low, upper = x95_percent_ci_upp)

plot_data

## # A tibble: 692 x 4
##    param        mean lower upper
##    <chr>       <dbl> <dbl> <dbl>
##  1 Nocc.fs[1]   49.8    44    57
##  2 Nocc.fs[2]   13.1    12    16
##  3 Nocc.fs[3]   41.7    38    47
##  4 Nocc.fs[4]   22.9    19    28
##  5 Nocc.fs[5]   34.4    30    41
##  6 Nocc.fs[6]   12.3    11    16
##  7 Nocc.fs[7]   26.1    17    40
##  8 Nocc.fs[8]   52.2    48    57
##  9 Nocc.fs[9]   44.6    43    48
## 10 Nocc.fs[10]  29.5    24    36
## # ... with 682 more rows
…
